<svg width="794" height="260" viewBox="0 0 794 260" fill="none" xmlns="http://www.w3.org/2000/svg">
<path d="M7.5 145V152.5H15H27.5V165V172.5H35H147.5V245V252.5H155H235H242.5V245V15V7.5H235H155H147.5V15V87.5H102.5V15V7.5H95H15H7.5V15V145ZM299.344 15V27.5H286.844H279.344V35V225V232.5H286.844H299.344V245V252.5H306.844H486.844H494.344V245V232.5H506.844H514.344V225V35V27.5H506.844H494.344V15V7.5H486.844H306.844H299.344V15ZM551.188 145V152.5H558.688H571.188V165V172.5H578.688H691.188V245V252.5H698.688H778.688H786.188V245V15V7.5H778.688H698.688H691.188V15V87.5H646.188V15V7.5H638.688H558.688H551.188V15V145ZM419.344 167.5H374.344V92.5H419.344V167.5Z" fill="#E22D18" stroke="black" stroke-width="15"/>
<path d="M15 145H35V165H155V245H235V45H155V125H95V45H15V145Z" fill="#E22D18"/>
<path d="M486.844 225H506.844V65H486.844V45H306.844V65H286.844V225H306.844V245H486.844V225ZM426.844 205H366.844V85H426.844V205Z" fill="#E22D18"/>
<path d="M558.688 145H578.688V165H698.688V245H778.688V45H698.688V125H638.688V45H558.688V145Z" fill="#E22D18"/>
<path d="M15 115H35V135H155V215H235V15H155V95H95V15H15V115Z" fill="#FCE22C"/>
<path d="M486.844 195H506.844V35H486.844V15H306.844V35H286.844V195H306.844V215H486.844V195ZM426.844 175H366.844V55H426.844V175Z" fill="#FCE22C"/>
<path d="M558.688 115H578.688V135H698.688V215H778.688V15H698.688V95H638.688V15H558.688V115Z" fill="#FCE22C"/>
<rect x="307" y="15" width="20" height="20" fill="white"/>
<rect x="558" y="15" width="20" height="20" fill="white"/>
<rect x="15" y="15" width="20" height="20" fill="white"/>
<rect x="699" y="15" width="20" height="20" fill="white"/>
<rect x="156" y="15" width="20" height="20" fill="white"/>
</svg>
