<svg width="20" height="14" viewBox="0 0 20 14" fill="none" xmlns="http://www.w3.org/2000/svg">
<path d="M0 0.333191V4.7776V9.22206V13.6665H20V9.22206V4.7776V0.333191H0Z" fill="#F0F0F0"/>
<path d="M20 0.333313H0V13.6668H20V0.333313Z" fill="#0052B4"/>
<path d="M20 0.333313H0V4.77766H20V0.333313Z" fill="#F0F0F0"/>
<path d="M20 9.22205H0V13.6664H20V9.22205Z" fill="#D80027"/>
</svg>
