<svg width="91" height="94" viewBox="0 0 91 94" fill="none" xmlns="http://www.w3.org/2000/svg">
<path d="M50.0456 26.8575C50.9994 23.0309 52.2904 19.3259 53.3369 15.5307C53.7105 14.1761 53.4484 13.4496 51.966 13.1976C48.1866 12.5549 44.1299 14.672 40.7151 16.0835" stroke="#DBDBDB" stroke-width="2" stroke-linecap="round" stroke-linejoin="round"/>
<path d="M44.3623 22.0605C41.3762 25.0865 38.7681 27.4828 36.3185 31.0229C33.6666 34.8554 31.2976 39.5914 29.9715 44.0581C27.8752 51.1195 27.3325 59.4616 31.0471 66.1092C32.0668 67.9341 34.338 70.4971 35.9166 71.8561C37.4763 73.1986 39.9389 74.7357 41.8407 75.5641" stroke="#DBDBDB" stroke-width="2" stroke-linecap="round" stroke-linejoin="round"/>
</svg>
